<?xml version="1.0" standalone="no"?>
<!DOCTYPE svg PUBLIC "-//W3C//DTD SVG 20010904//EN"
 "http://www.w3.org/TR/2001/REC-SVG-20010904/DTD/svg10.dtd">
<svg version="1.0" xmlns="http://www.w3.org/2000/svg"
 width="700.000000pt" height="700.000000pt" viewBox="0 0 700.000000 700.000000"
 preserveAspectRatio="xMidYMid meet">
<metadata>
Created by potrace 1.11, written by Peter Selinger 2001-2013
</metadata>
<g transform="translate(0.000000,700.000000) scale(0.100000,-0.100000)"
fill="#000000" stroke="none">
<path d="M3308 6995 c-2 -1 -46 -6 -98 -10 -52 -3 -97 -8 -100 -10 -3 -1 -34
-5 -70 -9 -36 -3 -101 -13 -144 -21 -44 -8 -91 -17 -105 -20 -49 -9 -67 -13
-186 -44 -66 -18 -138 -39 -160 -47 -22 -9 -47 -17 -55 -19 -123 -26 -495
-198 -710 -329 -102 -61 -336 -225 -372 -259 -7 -6 -51 -44 -98 -84 -129 -108
-331 -320 -444 -463 -36 -47 -74 -94 -82 -105 -39 -48 -204 -307 -244 -380
-23 -44 -46 -84 -50 -90 -4 -5 -31 -62 -60 -125 -109 -239 -202 -512 -244
-720 -3 -14 -7 -36 -10 -50 -14 -63 -26 -129 -31 -170 -3 -25 -10 -72 -15
-105 -35 -228 -32 -675 6 -917 7 -48 12 -82 19 -128 13 -88 68 -307 110 -440
320 -1010 1066 -1811 2047 -2200 213 -85 519 -173 678 -195 25 -3 52 -8 60 -9
16 -3 97 -15 145 -21 174 -24 725 -24 796 -1 8 3 39 8 69 11 114 13 139 17
273 46 75 16 183 43 240 60 56 17 109 32 117 34 98 23 470 186 600 263 19 11
53 30 75 42 92 50 373 244 441 305 7 5 40 35 75 65 105 90 331 319 411 417
327 396 561 853 693 1358 19 72 37 146 40 165 3 19 12 69 20 110 8 41 17 95
20 120 3 25 8 65 11 89 19 141 25 587 10 696 -2 17 -7 62 -11 100 -3 39 -8 77
-10 85 -2 8 -7 31 -10 50 -3 19 -7 46 -10 60 -3 14 -7 40 -10 58 -9 55 -44
202 -66 276 -12 38 -22 76 -24 85 -10 44 -95 274 -135 366 -39 86 -128 268
-160 325 -69 121 -203 330 -235 366 -5 7 -19 24 -30 40 -40 57 -188 231 -255
299 -200 207 -388 363 -595 497 -49 32 -95 62 -102 68 -7 5 -14 10 -16 10 -2
0 -42 22 -88 48 -338 193 -737 337 -1124 407 -119 21 -137 24 -300 41 -44 5
-493 13 -497 9z"/>
</g>
</svg>
